…
The following script lets you view branch ID, environmental values, and
the number of upstream contributing patches for each patch:

``` r
net$patch_df
```

    ## # A tibble: 50 x 4
    ##    patch_id branch_id environment n_patch_upstream
    ##       <int>     <dbl>       <dbl>            <dbl>
    ##  1        1         1      -0.481               50
    ##  2        2        12      -1.13                 2
    ##  3        3        12      -0.974                1
    ##  4        4        10       0.303                6
    ##  5        5        10       0.370                5
    ##  6        6         3      -0.431               26
    ##  7        7         3      -0.345               25
    ##  8        8         3      -0.595               24
    ##  9        9         3      -0.594               23
    ## 10       10        11      -0.180                6
    ## # ... with 40 more rows
…
