brnet • mcbrnet
…
The following script shows patch ID, branch ID, environmental values,
disturbance values, and the number of upstream contributing patches for
each patch:

net$df_patch
#> # A tibble: 50 x 5
#>    patch_id branch_id environment disturbance n_patch_upstream
#>       <int>     <dbl>       <dbl>       <dbl>            <dbl>
#>  1        1         1      -1.33        0.861               50
#>  2        2        10      -1.13        0.967                6
#>  3        3        10      -1.05        0.970                5
#>  4        4         7      -0.833       0.831               16
#>  5        5         7      -0.665       0.848               15
#>  6        6        13      -0.890       0.712                5
#>  7        7        13      -0.938       0.705                4
#>  8        8        13      -0.967       0.727                3
#>  9        9        13      -1.06        0.738                2
#> 10       10        13      -1.18        0.728                1
#> # ... with 40 more rows
…
