igpsim • mcbrnet
…
A named list of return values:

igp
#> $df_dynamics
#> # A tibble: 15,000 × 7
#>    timestep patch_id carrying_capacity disturbance species     abundance   fcl
#>       <dbl>    <dbl>             <dbl>       <dbl> <fct>           <dbl> <dbl>
#>  1        1        1               100           0 basal              52     2
#>  2        1        1               100           0 ig-prey             0     2
#>  3        1        1               100           0 ig-predator        23     2
#>  4        1        2               100           0 basal              56     2
#>  5        1        2               100           0 ig-prey             0     2
#>  6        1        2               100           0 ig-predator        42     2
#>  7        1        3               100           0 basal              73     2
#>  8        1        3               100           0 ig-prey             0     2
#>  9        1        3               100           0 ig-predator        34     2
#> 10        1        4               100           0 basal             105     1
#> # ℹ 14,990 more rows
…
