mcsim • mcbrnet
…
A named list of return values:

mc
#> $df_dynamics
#> # A tibble: 25,000 x 9
#>    timestep patch_id mean_env    env carrying_capacity species niche_optim
#>       <dbl>    <dbl>    <dbl>  <dbl>             <dbl>   <dbl>       <dbl>
#>  1        1        1        0 0.0314               100       1       0.526
#>  2        1        1        0 0.0314               100       2       0.437
#>  3        1        1        0 0.0314               100       3       0.158
#>  4        1        1        0 0.0314               100       4      -0.142
#>  5        1        1        0 0.0314               100       5      -0.262
#>  6        1        2        0 0.149                100       1       0.526
#>  7        1        2        0 0.149                100       2       0.437
#>  8        1        2        0 0.149                100       3       0.158
#>  9        1        2        0 0.149                100       4      -0.142
#> 10        1        2        0 0.149                100       5      -0.262
#> # ... with 24,990 more rows, and 2 more variables: r_xt <dbl>, abundance <dbl>
…
