mcbrnet • mcbrnet
…
# distance matrix
# showing 5 patches for example
net$distance_matrix[1:5, 1:5]
#>      [,1] [,2] [,3] [,4] [,5]
#> [1,]    0    4    5    7    8
#> [2,]    4    0    1    7    8
#> [3,]    5    1    0    8    9
#> [4,]    7    7    8    0    1
#> [5,]    8    8    9    1    0

The following script lets you view branch ID, environmental values,
and the number of upstream contributing patches for each patch:

net$df_patch
#> # A tibble: 50 x 5
#>    patch_id branch_id environment disturbance n_patch_upstream
#>       <int>     <dbl>       <dbl>       <dbl>            <dbl>
#>  1        1         1      -1.33        0.861               50
#>  2        2        10      -1.13        0.967                6
#>  3        3        10      -1.05        0.970                5
#>  4        4         7      -0.833       0.831               16
#>  5        5         7      -0.665       0.848               15
#>  6        6        13      -0.890       0.712                5
#>  7        7        13      -0.938       0.705                4
#>  8        8        13      -0.967       0.727                3
#>  9        9        13      -1.06        0.738                2
#> 10       10        13      -1.18        0.728                1
#> # ... with 40 more rows
…
A named list of return values:

mc
#> $df_dynamics
#> # A tibble: 25,000 x 9
#>    timestep patch_id mean_env     env carrying_capacity species niche_optim
#>       <dbl>    <dbl>    <dbl>   <dbl>             <dbl>   <dbl>       <dbl>
#>  1        1        1        0 -0.101                100       1     -0.526 
#>  2        1        1        0 -0.101                100       2     -0.696 
#>  3        1        1        0 -0.101                100       3      0.552 
#>  4        1        1        0 -0.101                100       4      0.927 
#>  5        1        1        0 -0.101                100       5      0.0717
#>  6        1        2        0  0.0595               100       1     -0.526 
#>  7        1        2        0  0.0595               100       2     -0.696 
#>  8        1        2        0  0.0595               100       3      0.552 
#>  9        1        2        0  0.0595               100       4      0.927 
#> 10        1        2        0  0.0595               100       5      0.0717
#> # ... with 24,990 more rows, and 2 more variables: r_xt <dbl>, abundance <dbl>
…
